[
{ "nom" : "hotel1",
  "lat" : 43.6192,
  "long" : 3.87670,
  "icon": "green",
  "description" : "FooBar" 
},
{ "nom" : "hotel2",
  "lat" : 43.62,
  "long" : 3.87775,
  "icon": "green",
  "description" : "FooBar"	
}
]