[
{ "nom" : "restaurant1",
  "lat" : 43.6114,
  "long" : 3.85660,
  "icon" : "red",
  "description" : "FooBar"
	},
{ "nom" : "restaurant2",
  "lat" : 43.605,
  "long" : 3.88685,
  "icon" : "red",
  "description" : "FooBar"
}
]